…
    ## 
    ##        no       yes 
    ## 0.4979079 0.5020921

``` r
##   * how break down re: version of R they were built on
packages %>% group_by(Version) %>% count()
```

    ## # A tibble: 182 x 2
    ## # Groups:   Version [182]
    ##    Version     n
    ##     <fctr> <int>
    ##  1   0.0.2     1
    ##  2     0.1     3
    ##  3   0.1-1     2
    ##  4  0.1-11     1
    ##  5   0.1-2     1
    ##  6  0.1-24     1
    ##  7   0.1-3     1
    ##  8  0.1-42     1
    ##  9   0.1.0     2
    ## 10   0.1.1     4
    ## # ... with 172 more rows
…
